An Introduction to Natural Language Processing and Machine Learning
…
sci_data <- read_csv(here("data", "data-to-model.csv"))

sci_data %>% 
  select(student_id, final_grade) %>% 
  arrange(desc(final_grade))
```

```r
sci_data %>% 
  select(student_id, final_grade) %>% 
  arrange(desc(final_grade))
```

```
## # A tibble: 546 x 2
##    student_id final_grade
##         <dbl>       <dbl>
##  1      85650       100  
##  2      91067        99.8
##  3      66740        99.3
##  4      86792        99.1
##  5      78153        99.0
##  6      66689        98.6
##  7      88261        98.6
##  8      92740        98.6
##  9      92726        98.2
## 10      92741        98.2
## # … with 536 more rows
```
…
And . . .

What do you think will happen?

---

```r
sci_data %>% 
  select(student_id, final_grade) %>% 
  arrange(desc(final_grade))
```

```
## # A tibble: 546 x 2
##    student_id final_grade
##         <dbl>       <dbl>
##  1      85650       100  
##  2      91067        99.8
##  3      66740        99.3
##  4      86792        99.1
##  5      78153        99.0
##  6      66689        98.6
##  7      88261        98.6
##  8      92740        98.6
##  9      92726        98.2
## 10      92741        98.2
## # … with 536 more rows
```
…
